alembic==1.4.3
amqp==5.0.2
astroid==2.4.2
attrs==21.4.0
beautifulsoup4==4.10.0
blinker==1.4
certifi==2020.6.20
chardet==3.0.4
click==7.1.2
decorator==4.4.2
dnspython==2.0.0
email-validator==1.1.3
factory-boy==3.2.1
Faker==12.1.0
feedparser==6.0.8
Flask==2.0.2
Flask-Cors==3.0.10
Flask-Debug-API==0.1.0
Flask-DebugToolbar==0.11.0
Flask-Login==0.5.0
Flask-Mail==0.9.1
Flask-Migrate==3.1.0
Flask-SQLAlchemy==2.4.4
Flask-WTF==1.0.0
idna==2.10
iniconfig==1.1.1
isort==5.5.3
itsdangerous==2.0.1
Jinja2==3.0.3
lazy-object-proxy==1.4.3
lxml==4.7.1
Mako==1.1.3
MarkupSafe==2.0.1
mccabe==0.6.1
msgpack==0.6.2
mysqlclient==2.1.0
packaging==21.3
Pillow==9.0.0
pluggy==1.0.0
progress==1.5
prompt-toolkit==3.0.8
py==1.11.0
pycodestyle==2.6.0
PyJWT==1.7.1
pylint==2.6.0
pyparsing==2.4.6
pytest==6.2.5
python-dateutil==2.8.1
python-editor==1.0.4
python-slugify==4.0.1
pytoml==0.1.21
pytz==2020.4
requests==2.24.0
retrying==1.3.3
sgmllib3k==1.0.0
six==1.15.0
soupsieve==2.0.1
SQLAlchemy==1.3.19
text-unidecode==1.3
toml==0.10.1
typed-ast==1.4.1
urllib3==1.25.10
validators==0.18.1
vine==5.0.0
wcwidth==0.2.5
webencodings==0.5.1
Werkzeug==2.0.2
wrapt==1.12.1
WTForms==2.3.3
zipp==3.4.0
