<?xml version="1.0" encoding="utf-8"?>
<!-- Generator: Adobe Illustrator 16.0.4, SVG Export Plug-In . SVG Version: 6.00 Build 0)  -->
<!DOCTYPE svg PUBLIC "-//W3C//DTD SVG 1.1//EN" "http://www.w3.org/Graphics/SVG/1.1/DTD/svg11.dtd">
<svg version="1.1" id="Calque_1" xmlns="http://www.w3.org/2000/svg" xmlns:xlink="http://www.w3.org/1999/xlink" x="0px" y="0px"
	 width="100%" height="100%" viewBox="0 0 35 35" enable-background="new 0 0 35 35" xml:space="preserve">
<g display="none">
	<g display="inline">
		<path fill="#888888" d="M7.002,17.895h20.996v-0.67H7.002V17.895z M7.002,11.001v0.668h20.996v-0.668H7.002z M7.002,23.998h20.996
			V23.33H7.002V23.998z"/>
	</g>
</g>
<path display="none" fill="#888888" d="M9.067,26.996c-0.272,0-0.542-0.008-0.809-0.023l-1.206-0.076l1.061-0.572
	c1.259-0.682,2.252-1.775,2.82-3.102c-2.5-1.631-3.927-4.049-3.927-6.669c0-4.715,4.708-8.55,10.496-8.55s10.494,3.835,10.494,8.55
	c0,4.714-4.707,8.548-10.494,8.548c-0.453,0-0.91-0.023-1.361-0.072c-1.066,0.658-2.256,1.164-3.537,1.502
	C11.438,26.84,10.248,26.996,9.067,26.996z M17.501,8.694c-5.404,0-9.8,3.526-9.8,7.859c0,2.462,1.402,4.736,3.845,6.24l0.244,0.148
	l-0.102,0.266c-0.466,1.232-1.258,2.301-2.278,3.094c1.007-0.027,2.02-0.174,3.013-0.436c1.254-0.332,2.414-0.832,3.449-1.484
	l0.104-0.064l0.123,0.014c0.465,0.055,0.936,0.08,1.402,0.08c5.402,0,9.799-3.523,9.799-7.857C27.3,12.22,22.903,8.694,17.501,8.694
	z"/>
<g>
	<g>
		<path fill="#888888" d="M29.998,17.501c0-6.895-5.606-12.504-12.498-12.504S5.002,10.606,5.002,17.501
			c0,3.582,1.522,6.808,3.943,9.089l-0.015,0.018l0.315,0.277c0.063,0.056,0.133,0.104,0.197,0.158
			c0.105,0.09,0.215,0.175,0.324,0.261c0.198,0.156,0.398,0.309,0.604,0.452c0.12,0.083,0.243,0.163,0.366,0.243
			c0.202,0.13,0.405,0.255,0.613,0.372c0.14,0.08,0.28,0.155,0.423,0.229c0.2,0.103,0.401,0.2,0.605,0.292
			c0.159,0.071,0.318,0.142,0.48,0.206c0.197,0.079,0.396,0.15,0.598,0.22c0.173,0.06,0.345,0.119,0.521,0.171
			c0.204,0.06,0.412,0.109,0.619,0.159c0.176,0.042,0.35,0.087,0.527,0.121c0.237,0.046,0.477,0.078,0.718,0.11
			c0.151,0.021,0.301,0.047,0.454,0.062c0.398,0.039,0.801,0.062,1.204,0.062s0.805-0.022,1.203-0.062
			c0.155-0.015,0.306-0.042,0.459-0.062c0.238-0.032,0.477-0.063,0.713-0.108c0.18-0.035,0.355-0.081,0.533-0.123
			c0.205-0.05,0.409-0.099,0.611-0.157c0.179-0.053,0.354-0.113,0.53-0.174c0.197-0.068,0.394-0.138,0.587-0.216
			c0.166-0.066,0.329-0.138,0.491-0.211c0.2-0.09,0.397-0.186,0.593-0.286c0.146-0.076,0.291-0.153,0.434-0.234
			c0.205-0.116,0.405-0.239,0.604-0.367c0.126-0.082,0.252-0.163,0.374-0.249c0.204-0.142,0.402-0.292,0.598-0.447
			c0.11-0.087,0.221-0.173,0.328-0.263c0.064-0.055,0.133-0.103,0.196-0.158l0.314-0.277l-0.014-0.017
			C28.476,24.31,29.998,21.083,29.998,17.501z M5.859,17.501c0-6.422,5.223-11.646,11.641-11.646
			c6.419,0,11.641,5.224,11.641,11.646c0,3.329-1.411,6.328-3.657,8.452c-0.823-0.794-2.088-1.454-3.579-1.866
			c-0.677-0.298-0.827-0.371-0.998-0.508l-0.182-0.181c-0.273-0.266-0.424-0.412-0.477-0.807v-1.789
			c0.479-0.559,0.783-1.303,1.082-2.282c0.403-0.153,0.804-0.663,0.932-1.23c0.136-0.611,0.07-1.125-0.162-1.41
			c0.658-2.488,0.557-4.613-0.281-5.725c-0.44-0.585-1.082-0.895-1.854-0.896c-0.071-0.059-0.118-0.122-0.177-0.202
			c-0.302-0.413-0.624-0.705-2.021-0.705l-0.15,0.001c-1.678,0-2.95,0.506-3.781,1.504c-1.065,1.278-1.368,3.317-0.901,6.064
			c-0.2,0.287-0.262,0.768-0.154,1.338c0.102,0.533,0.438,1.017,0.815,1.215c0.367,1.069,0.75,1.812,1.189,2.311
			c0.024,0.81,0.033,1.723,0.002,1.896c-0.047,0.251-0.182,0.482-0.427,0.726c-0.229,0.229-0.534,0.396-1.168,0.649
			c-1.56,0.43-2.843,1.096-3.674,1.897C7.271,23.829,5.859,20.83,5.859,17.501z M24.008,27.151c-0.015,0.01-0.031,0.019-0.046,0.028
			c-0.276,0.186-0.561,0.357-0.853,0.519c-0.105,0.059-0.214,0.108-0.32,0.163c-0.205,0.105-0.412,0.208-0.624,0.301
			c-0.138,0.061-0.277,0.114-0.417,0.169c-0.189,0.075-0.381,0.146-0.575,0.211c-0.151,0.051-0.304,0.098-0.457,0.142
			c-0.194,0.056-0.391,0.105-0.589,0.151c-0.152,0.036-0.306,0.071-0.46,0.101c-0.222,0.042-0.446,0.074-0.673,0.103
			c-0.132,0.018-0.264,0.039-0.396,0.052c-0.361,0.034-0.728,0.056-1.098,0.056s-0.736-0.021-1.098-0.056
			c-0.133-0.013-0.264-0.034-0.396-0.051c-0.227-0.029-0.452-0.062-0.675-0.104c-0.153-0.029-0.305-0.064-0.457-0.1
			c-0.199-0.046-0.397-0.097-0.593-0.153c-0.151-0.043-0.303-0.09-0.452-0.14c-0.197-0.065-0.392-0.138-0.584-0.214
			c-0.136-0.054-0.272-0.106-0.407-0.165c-0.218-0.096-0.431-0.201-0.643-0.31c-0.1-0.052-0.202-0.099-0.301-0.153
			c-0.616-0.34-1.198-0.734-1.739-1.176c0.729-0.682,1.872-1.26,3.306-1.657c0.696-0.274,1.142-0.492,1.504-0.854
			c0.367-0.368,0.584-0.753,0.663-1.177c0.065-0.363,0.021-1.808,0.007-2.242l-0.007-0.167l-0.117-0.119
			c-0.421-0.426-0.792-1.156-1.171-2.301l-0.025-0.297l-0.322,0.014c-0.076-0.035-0.307-0.278-0.372-0.623
			c-0.057-0.303-0.037-0.521-0.01-0.628l0.284-0.048l-0.077-0.428c-0.477-2.602-0.25-4.482,0.675-5.592
			c0.661-0.794,1.711-1.195,3.129-1.195l0.145-0.001c1.069,0,1.185,0.156,1.329,0.354c0.102,0.14,0.242,0.33,0.521,0.496l0.11,0.065
			l0.232-0.009c0.509,0,0.894,0.182,1.175,0.555c0.699,0.928,0.723,2.948,0.059,5.272l-0.068,0.412l0.326,0.104
			c0.025,0.099,0.043,0.326-0.026,0.644c-0.059,0.259-0.206,0.457-0.311,0.554l-0.349-0.262l-0.174,0.595
			c-0.305,1.053-0.605,1.855-1.081,2.35l-0.119,0.124l0.003,2.181c0.093,0.748,0.418,1.063,0.732,1.369l0.2,0.195
			c0.301,0.247,0.535,0.355,1.289,0.684c1.381,0.385,2.506,0.957,3.228,1.633C24.574,26.746,24.297,26.956,24.008,27.151z"/>
	</g>
</g>
</svg>
